{
  "kind": "collectionType",
  "connection": "default",
  "collectionName": "diseases",
  "info": {
    "name": "Disease",
    "displayName": "Hastalıklar"
  },
  "options": {
    "increments": true,
    "timestamps": true
  },
  "attributes": {
    "isim": {
      "type": "string",
      "required": true,
      "maxLength": 99,
      "minLength": 2
    },
    "Gorulme_Tarihi": {
      "type": "date"
    },
    "Notlar": {
      "type": "text"
    },
    "bird": {
      "via": "diseases",
      "model": "bird"
    }
  }
}
